<?xml version="1.0" encoding="utf-8"?>
<!-- Generator: Adobe Illustrator 19.2.1, SVG Export Plug-In . SVG Version: 6.00 Build 0)  -->
<svg version="1.1" id="Layer_1" xmlns="http://www.w3.org/2000/svg" xmlns:xlink="http://www.w3.org/1999/xlink" x="0px" y="0px"
	 viewBox="0 0 238.5 163" style="enable-background:new 0 0 238.5 163;" xml:space="preserve">
<style type="text/css">
	.st0{fill:#FFFFFF;}
</style>
<path class="st0" d="M190.2,115.7v1h1.9v5.4h1.2v-5.4h1.9v-1H190.2z M199.2,119.4l-1.9-3.6l-0.1-0.1c0,0-0.1,0-0.1-0.1H197h-0.1H196
	v6.4h1.1v-4.1c0-0.1,0-0.2,0-0.3c0-0.1,0-0.2,0-0.3l2,3.6c0,0.1,0.1,0.2,0.2,0.2c0.1,0,0.2,0.1,0.2,0.1h0.2c0.1,0,0.2,0,0.2-0.1
	c0.1,0,0.1-0.1,0.2-0.2l1.9-3.6c0,0.1,0,0.2,0,0.3c0,0.1,0,0.2,0,0.3v4.1h1.1v-6.4H202c-0.1,0-0.1,0-0.1,0h-0.1c0,0-0.1,0-0.1,0.1
	l-0.1,0.1l-1.9,3.6c-0.1,0.1-0.1,0.2-0.1,0.3c0,0.1-0.1,0.2-0.1,0.3c0-0.1-0.1-0.2-0.1-0.3C199.3,119.6,199.3,119.5,199.2,119.4
	L199.2,119.4z"/>
<path class="st0" d="M46.5,0l1,12.1h-1C46,6,41.5,1.4,32.5,1.4h-5.3v35.9c0,5.6,3.4,8.2,7.3,8.2h1.6v0.9H11.3v-0.9H13
	c3.9,0,7.3-2.6,7.3-8.2V1.4H15C6,1.4,1.4,6,1,12.1H0L1,0H46.5z M89,21.8V8.7c0-6.1-2.9-7.8-6.7-7.8h-0.8V0h22v0.9h-0.8
	C99,0.9,96,2.6,96,8.7v28.5c0,5.6,3.4,8.2,7.3,8.2h0.8v0.9H81v-0.9h0.8c3.9,0,7.2-2.6,7.2-8.2v-14H63.8v14.1c0,5.6,3.3,8.2,7.2,8.2
	h0.8v0.9h-23v-0.9h0.8c3.9,0,7.3-2.6,7.3-8.2V8.7c0-6.1-3-7.8-6.7-7.8h-0.8V0h22v0.9h-0.8c-3.7,0-6.7,1.7-6.7,7.8v13.1H89z
	 M115.4,37.3l-0.1-28.5c0-6.1-3-7.8-6.7-7.8h-0.8V0h36.5l0.8,10.8h-1c-0.5-6.1-4.7-10-13.7-10h-8.2v20.4h4.4c5.6,0,7.1-3.8,7.1-7.7
	v-0.8h0.8v18.2h-0.8v-0.8c0-4.9-3-8.1-7.8-8.1h-3.8v15c0,5.6,3.4,8.3,11.1,8.3c9.5,0,14.1-4.5,15-12.6h0.8l-0.5,13.4h-41.2v-0.9h0.8
	C112,45.5,115.4,42.9,115.4,37.3z"/>
<path class="st0" d="M22.4,80H17v15c0,6.6,2.7,8.2,7.3,8.2c6.9,0,11.5-4,11.5-12.1C35.8,81.7,30.7,80,22.4,80z M17.1,58.6L17,79.2
	h4.7c7.8,0,10.8-3.2,10.8-10c0-7.9-4.7-10.6-11.4-10.6H17.1z M2.5,57.8H25c7.4,0,14.8,2.7,14.8,10.6c0,7.8-7.3,10.2-10.4,10.9
	c3.3,0,14.8,2.5,14.8,12.4c0,3.8-2.7,8.6-5.8,10.4c-2.8,1.7-4.5,2.1-10.8,2.1H2.1v-0.9h0.8c3.9,0,7.3-2.6,7.3-8.2V66.5
	c0-6.1-3.1-7.8-6.8-7.8H2.5V57.8L2.5,57.8L2.5,57.8z M59.3,58.7v22c0.7,0,1.4,0.1,2.1,0.1c6.4,0,13.2-1.3,13.2-11.1
	C74.7,59.1,68,58.7,59.3,58.7z M59.3,81.4V95c0,5.6,3.3,8.2,7.2,8.2h0.8v0.9H44.4v-0.9h0.8c3.9,0,7.3-2.6,7.3-8.2V66.5
	c0-6.1-3-7.8-6.7-7.8H45v-0.9h24.4c8.6,0,12.6,5.1,12.6,12c0,7.8-4.1,9.8-10.3,11.3c5.8,0.9,5.6,3.4,10.2,10.8
	c6.4,10.4,7.8,11.3,12.8,11.4v0.9H81.4L75.3,93C69.6,82.6,68.9,81.4,59.3,81.4z M141.1,104.2h-22v-0.9h0.8c4,0,5.6-1.4,5.6-4.2
	c0-2.5-1.3-6.2-3.2-10.9l-0.8-2.1h-16l-2.7,6.2c-0.5,1.3-1.1,3.2-1.1,5c0,3,1.2,6,5.3,6h0.5v0.9H92.4v-0.9H93c3.8,0,6.7-6.7,7.9-9.4
	l16.3-36.2h0.2l15,38.1c1.4,3.7,3.9,7.4,7.9,7.4h0.8L141.1,104.2L141.1,104.2z M114.2,67.2l-8,17.5H121L114.2,67.2z M154.3,57.8
	l28.1,35.1V73.7c0-11.9-1.3-15-6-15h-0.5v-0.9h15.2v0.9h-0.5c-4.6,0-6.2,3.2-6.2,15v30.9h-0.8l-33.1-41.4V95c0,5.6,2.8,8.2,6.7,8.2
	h0.8v0.9h-16.3v-0.9h0.8c3.9,0,6.9-2.6,6.9-8.2V66.3c0-6-2.9-7.6-6.6-7.6H142v-0.9L154.3,57.8L154.3,57.8z M211.8,103.3
	c11.9,0,19-11.5,19-22.3c0-8.2-5.3-21.9-20-21.9h-5.7V95C205.1,103.1,207.9,103.3,211.8,103.3z M214.9,104.2h-24.7v-0.9h0.8
	c3.9,0,7.3-2.6,7.3-8.2V66.5c0-6.1-3-7.8-6.7-7.8h-0.8v-0.9H213c20.2,0,25.7,13.2,25.7,23.2C238.5,92.3,233.2,104.2,214.9,104.2z"/>
<path class="st0" d="M42.9,130h0.6l-0.3-14.4h-0.8c-0.1,0.7-0.9,1.9-1.9,1.9c-1.9,0-6.5-2.9-14.5-2.9c-13.4,0-23.4,11.7-23.4,24.2
	c0,15.4,9.6,24.2,24.2,24.2c7.1,0,17.5-3.7,17.5-14.3h-0.9c0,6.7-5.8,12.4-15.5,12.4c-10.4,0-17.4-9.6-17.4-22.4
	c0-12.8,7.1-23.3,16.3-23.3C34.5,115.4,40,118.6,42.9,130z M86.6,137.4v-13.1c0-6.1-2.9-7.8-6.7-7.8h-0.8v-0.9h22v0.9h-0.8
	c-3.7,0-6.7,1.7-6.7,7.8v28.5c0,5.6,3.4,8.2,7.3,8.2h0.8v0.9h-23V161h0.8c3.9,0,7.2-2.6,7.2-8.2v-14.1H61.5v14.1
	c0,5.6,3.3,8.2,7.2,8.2h0.8v0.9h-23V161h0.8c3.9,0,7.3-2.6,7.3-8.2v-28.5c0-6.1-3-7.8-6.7-7.8H47v-0.9h22v0.9h-0.8
	c-3.7,0-6.7,1.7-6.7,7.8v13.1L86.6,137.4L86.6,137.4z M150.3,161.9h-22V161h0.8c4,0,5.6-1.4,5.6-4.2c0-2.5-1.3-6.2-3.2-10.9
	l-0.8-2.1h-16L112,150c-0.5,1.3-1.1,3.2-1.1,5c0,3,1.2,6,5.3,6h0.5v0.9h-15.2V161h0.5c3.8,0,6.7-6.7,7.9-9.4l16.3-36.2h0.2l15,38.1
	c1.4,3.7,3.9,7.4,7.9,7.4h0.8L150.3,161.9L150.3,161.9z M123.3,125l-8,17.5h14.8L123.3,125z M187.8,127.6c0,10.2-7.3,11.9-15.8,11.9
	c-2.2,0-4.5-0.1-6.7-0.3v13.6c0,5.6,3.3,8.2,7.2,8.2h0.8v0.9h-22.9V161h0.8c3.9,0,7.3-2.6,7.3-8.2v-28.5c0-6.1-2.9-7.8-6.7-7.8H151
	v-0.9h24.4C183.8,115.5,187.6,120.6,187.8,127.6z M165.3,116.4v22c0.7,0,1.4,0.1,2.1,0.1c6.4,0,13.2-1.3,13.2-11.1
	C180.6,116.9,173.9,116.4,165.3,116.4z"/>
</svg>
